// Jest Snapshot v1, https://goo.gl/fbAQLP

exports[`2. Create level-9 1`] = `
Object {
  "createLevel": Object {
    "name": "level-9",
  },
}
`;

exports[`3. Edit level-9 -> level-999 1`] = `
Object {
  "updateLevel": Object {
    "name": "level-999",
  },
}
`;

exports[`4. Query level-999 1`] = `
Object {
  "level": Object {
    "name": "level-999",
  },
}
`;

exports[`5. Delete level-999 1`] = `
Object {
  "deleteLevel": Object {
    "name": "level-999",
  },
}
`;

exports[`6. Query levels after creating level-1, level-10, level-100 1`] = `
Object {
  "levels": Array [
    Object {
      "name": "level-1",
    },
    Object {
      "name": "level-10",
    },
    Object {
      "name": "level-100",
    },
  ],
}
`;
