// Jest Snapshot v1, https://goo.gl/fbAQLP

exports[`2. createLevel 1
        createLevel 10
        createProduct 1
        createProduct 2
        createLevelPrice 1 1`] = `
Object {
  "createLevelPrice": Object {
    "isAvailable": true,
    "level": Object {
      "name": "level-1",
    },
    "price": 1,
    "product": Object {
      "description": "description-1",
      "name": "product-1",
      "quantity": 999,
    },
  },
}
`;

exports[`3. updateLevelPrice 1 -> 9 1`] = `
Object {
  "updateLevelPrice": Object {
    "isAvailable": true,
    "level": Object {
      "name": "level-1",
    },
    "price": 9,
    "product": Object {
      "description": "description-1",
      "name": "product-1",
      "quantity": 999,
    },
  },
}
`;

exports[`4. updateLevelPrice 9 -> -1 -> PRICE_LT_0 1`] = `
Object {
  "data": Object {
    "updateLevelPrice": null,
  },
  "errors": Array [
    Object {
      "locations": Array [
        Object {
          "column": 9,
          "line": 3,
        },
      ],
      "message": "PRICE_LT_0",
      "path": Array [
        "updateLevelPrice",
      ],
    },
  ],
  "status": 200,
}
`;

exports[`5. createLevelPrice -1 -> PRICE_LT_0 1`] = `
Object {
  "data": Object {
    "createLevelPrice": null,
  },
  "errors": Array [
    Object {
      "locations": Array [
        Object {
          "column": 9,
          "line": 3,
        },
      ],
      "message": "PRICE_LT_0",
      "path": Array [
        "createLevelPrice",
      ],
    },
  ],
  "status": 200,
}
`;

exports[`7. createLevelPrice 2 isAvailable false 1`] = `
Object {
  "createLevelPrice": Object {
    "isAvailable": false,
    "level": Object {
      "name": "level-1",
    },
    "price": 2,
    "product": Object {
      "description": "description-2",
      "name": "product-2",
      "quantity": 999,
    },
  },
}
`;

exports[`8. Customer-level-1 customerProducts 1`] = `
Object {
  "customerProducts": Array [
    Object {
      "price": 9,
      "product": Object {
        "description": "description-1",
        "name": "product-1",
        "quantity": 999,
      },
    },
  ],
}
`;

exports[`9. updateLevelPrice 2 no any parameters 1`] = `
Object {
  "updateLevelPrice": Object {
    "isAvailable": false,
    "level": Object {
      "name": "level-1",
    },
    "price": 2,
    "product": Object {
      "description": "description-2",
      "name": "product-2",
      "quantity": 999,
    },
  },
}
`;

exports[`10. Customer-level-1 customerProducts 1`] = `
Object {
  "customerProducts": Array [
    Object {
      "price": 9,
      "product": Object {
        "description": "description-1",
        "name": "product-1",
        "quantity": 999,
      },
    },
  ],
}
`;

exports[`11. updateLevelPrice 2 isAvailable true 1`] = `
Object {
  "updateLevelPrice": Object {
    "isAvailable": true,
    "level": Object {
      "name": "level-1",
    },
    "price": 2,
    "product": Object {
      "description": "description-2",
      "name": "product-2",
      "quantity": 999,
    },
  },
}
`;

exports[`12. Customer-level-1 customerProducts 1`] = `
Object {
  "customerProducts": Array [
    Object {
      "price": 9,
      "product": Object {
        "description": "description-1",
        "name": "product-1",
        "quantity": 999,
      },
    },
    Object {
      "price": 2,
      "product": Object {
        "description": "description-2",
        "name": "product-2",
        "quantity": 999,
      },
    },
  ],
}
`;
